7;pepe;53359063Y;jajajaja;12/12/1212;nas;23;;646136523;
8;da;53359063Y;jasd;12/12/1212;nu;32;;646136523;
9;pruena;53359063Y;NSD;12/12/1212;NE;12;;646136523;
10;da;53359063Y;o;12/12/1212;n;23;;646136523;
